…
flags <- tibble(noc = noc_regions$noc, region = noc_regions$region, flag = countrycode(noc_regions$region, 'country.name', 'unicode.symbol'))
```

    ## Warning in countrycode_convert(sourcevar = sourcevar, origin = origin, destination = dest, : Some values were not matched unambiguously: Individual Olympic Athletes, Micronesia

``` r
olympics <- left_join(olympics, flags, by = "noc")

olympics
```

    ## # A tibble: 271,116 × 20
    ##       id name    sex     age height weight team   noc   games  year season city 
    ##    <dbl> <chr>   <chr> <dbl>  <dbl>  <dbl> <chr>  <chr> <chr> <dbl> <chr>  <chr>
    ##  1     1 A Diji… M        24    180     80 China  CHN   1992…  1992 Summer Barc…
    ##  2     2 A Lamu… M        23    170     60 China  CHN   2012…  2012 Summer Lond…
    ##  3     3 Gunnar… M        24     NA     NA Denma… DEN   1920…  1920 Summer Antw…
    ##  4     4 Edgar … M        34     NA     NA Denma… DEN   1900…  1900 Summer Paris
    ##  5     5 Christ… F        21    185     82 Nethe… NED   1988…  1988 Winter Calg…
    ##  6     5 Christ… F        21    185     82 Nethe… NED   1988…  1988 Winter Calg…
    ##  7     5 Christ… F        25    185     82 Nethe… NED   1992…  1992 Winter Albe…
    ##  8     5 Christ… F        25    185     82 Nethe… NED   1992…  1992 Winter Albe…
    ##  9     5 Christ… F        27    185     82 Nethe… NED   1994…  1994 Winter Lill…
    ## 10     5 Christ… F        27    185     82 Nethe… NED   1994…  1994 Winter Lill…
    ## # … with 271,106 more rows, and 8 more variables: sport <chr>, event <chr>,
    ## #   medal <chr>, date <date>, medal_winner <dbl>, medal_score <dbl>,
    ## #   region <chr>, flag <chr>
…
``` r
usa_fil <- olympics %>%
  filter(noc == "USA") %>%
  group_by(sport, year)%>%
  summarize(total_winners = sum(medal_winner), total_score = sum(medal_score))%>%
  filter(sport %in% c("Swimming", "Athletics"))
```

    ## `summarise()` has grouped output by 'sport'. You can override using the `.groups` argument.

``` r
usa_fil
```

    ## # A tibble: 56 × 4
    ## # Groups:   sport [2]
    ##    sport      year total_winners total_score
    ##    <chr>     <dbl>         <dbl>       <dbl>
    ##  1 Athletics  1896            17          41
    ##  2 Athletics  1900            39          84
    ##  3 Athletics  1904            72         149
    ##  4 Athletics  1906            23          51
    ##  5 Athletics  1908            41          93
    ##  6 Athletics  1912            49         109
    ##  7 Athletics  1920            36          80
    ##  8 Athletics  1924            48          99
    ##  9 Athletics  1928            34          75
    ## 10 Athletics  1932            44         107
    ## # … with 46 more rows
…
