…
## Lilly

ideas: -relationship between GDP etc -which olympics do athletes do best
in (i.e. when they participate in multiple, typical peak performance?)

``` r
olympics %>%
  distinct(id, games) %>%
  group_by(id) %>%
  count() %>%
  arrange(desc(n))
```

    ## # A tibble: 135,571 × 2
    ## # Groups:   id [135,571]
    ##       id     n
    ##    <dbl> <int>
    ##  1 79855    10
    ##  2 65378     9
    ##  3 99155     9
    ##  4 14388     8
    ##  5 26880     8
    ##  6 28051     8
    ##  7 28052     8
    ##  8 32458     8
    ##  9 51618     8
    ## 10 61572     8
    ## # … with 135,561 more rows
…
